<?xml version="1.0" encoding="UTF-8" standalone="no"?>
<!-- Created with Inkscape (http://www.inkscape.org/) -->

<svg
   width="1920"
   height="1056"
   viewBox="0 0 508 279.4"
   version="1.1"
   id="svg5"
   xml:space="preserve"
   inkscape:version="1.2.2 (b0a8486541, 2022-12-01)"
   sodipodi:docname="script-4.svg"
   inkscape:export-filename="script-4.png"
   inkscape:export-xdpi="96"
   inkscape:export-ydpi="96"
   xmlns:inkscape="http://www.inkscape.org/namespaces/inkscape"
   xmlns:sodipodi="http://sodipodi.sourceforge.net/DTD/sodipodi-0.dtd"
   xmlns="http://www.w3.org/2000/svg"
   xmlns:svg="http://www.w3.org/2000/svg"><sodipodi:namedview
     id="namedview7"
     pagecolor="#505050"
     bordercolor="#eeeeee"
     borderopacity="1"
     inkscape:showpageshadow="0"
     inkscape:pageopacity="0"
     inkscape:pagecheckerboard="0"
     inkscape:deskcolor="#505050"
     inkscape:document-units="px"
     showgrid="false"
     inkscape:zoom="0.8409652"
     inkscape:cx="402.51368"
     inkscape:cy="632.60644"
     inkscape:window-width="1920"
     inkscape:window-height="1034"
     inkscape:window-x="1728"
     inkscape:window-y="0"
     inkscape:window-maximized="1"
     inkscape:current-layer="layer1" /><defs
     id="defs2"><marker
       style="overflow:visible"
       id="TriangleStart"
       refX="0"
       refY="0"
       orient="auto-start-reverse"
       inkscape:stockid="TriangleStart"
       markerWidth="3"
       markerHeight="3.5999999"
       viewBox="0 0 5.3244081 6.1553851"
       inkscape:isstock="true"
       inkscape:collect="always"
       preserveAspectRatio="xMidYMid"><path
         transform="scale(0.5)"
         style="fill:context-stroke;fill-rule:evenodd;stroke:context-stroke;stroke-width:1pt"
         d="M 5.77,0 -2.88,5 V -5 Z"
         id="path135" /></marker><clipPath
       clipPathUnits="userSpaceOnUse"
       id="clipPath1062"><rect
         style="fill:#0000ff;fill-rule:evenodd;stroke-width:0.264583"
         id="rect1064"
         width="121.06966"
         height="197.81165"
         x="335.82321"
         y="-67.598267" /></clipPath><clipPath
       clipPathUnits="userSpaceOnUse"
       id="clipPath2764"><rect
         style="fill:#0000ff;fill-rule:evenodd;stroke-width:0.264583"
         id="rect2766"
         width="125.48514"
         height="95.044609"
         x="163.095"
         y="97.287262" /></clipPath><clipPath
       clipPathUnits="userSpaceOnUse"
       id="clipPath6420"><rect
         style="fill:#0000ff;fill-rule:evenodd;stroke-width:0.264583"
         id="rect6422"
         width="53.298512"
         height="66.225441"
         x="56.0555"
         y="177.15862" /></clipPath></defs><g
     inkscape:label="Camada 1"
     inkscape:groupmode="layer"
     id="layer1"><g
       id="g6566"
       transform="translate(-29.330193,-112.51595)" /><rect
       style="fill:#1f2137;fill-opacity:1;fill-rule:evenodd;stroke:none;stroke-width:0.264583;stroke-opacity:1"
       id="rect788"
       width="508"
       height="279.39999"
       x="-3.0079641e-14"
       y="3.0517579e-06" /><g
       id="g11879"
       transform="translate(111.08166,-127.80238)"
       style="fill:#101120;fill-opacity:1;stroke-width:1.00013;stroke-dasharray:none" /><g
       id="g16570"
       transform="translate(-1.0939376,-0.47194596)"><g
         id="g13906"
         transform="translate(-58.208336,25.384644)"><g
           id="g11988"
           transform="translate(-4.7823061,-60.410897)"><g
             id="g11984"
             transform="translate(-53.98765,41.374733)"
             style="fill:#101120;fill-opacity:1;stroke-width:1.00013;stroke-dasharray:none"><rect
               style="fill:#1f2137;fill-opacity:1;fill-rule:evenodd;stroke:#5f8dd3;stroke-width:0.529166;stroke-dasharray:none;stroke-opacity:1"
               id="rect11978"
               width="87.723671"
               height="147.23334"
               x="194.12675"
               y="68.221825" /><text
               xml:space="preserve"
               style="font-style:normal;font-variant:normal;font-weight:normal;font-stretch:normal;font-size:8.46667px;line-height:1.25;font-family:Carlito;-inkscape-font-specification:Carlito;text-align:center;text-decoration-color:#000000;text-anchor:middle;fill:#5f8dd3;fill-opacity:1;stroke-width:1.00013;stroke-dasharray:none;stop-color:#000000"
               x="237.83287"
               y="62.467663"
               id="text11982"><tspan
                 sodipodi:role="line"
                 style="font-style:normal;font-variant:normal;font-weight:normal;font-stretch:normal;font-size:8.46667px;font-family:Carlito;-inkscape-font-specification:Carlito;text-align:center;text-anchor:middle;fill:#5f8dd3;fill-opacity:1;stroke-width:1.00013;stroke-dasharray:none"
                 x="237.83287"
                 y="62.467663"
                 id="tspan13793">PROCESSO DO SHELL</tspan></text><text
               xml:space="preserve"
               style="font-style:normal;font-variant:normal;font-weight:normal;font-stretch:normal;font-size:6.35px;line-height:1.25;font-family:Carlito;-inkscape-font-specification:Carlito;text-align:center;text-decoration-color:#000000;text-anchor:middle;fill:#deaa87;fill-opacity:1;stroke-width:1.00013;stroke-dasharray:none;stop-color:#000000"
               x="237.83287"
               y="101.4838"
               id="text13813"><tspan
                 sodipodi:role="line"
                 style="font-style:normal;font-variant:normal;font-weight:normal;font-stretch:normal;font-size:6.35px;font-family:Carlito;-inkscape-font-specification:Carlito;text-align:center;text-anchor:middle;fill:#deaa87;fill-opacity:1;stroke-width:1.00013;stroke-dasharray:none"
                 x="237.83287"
                 y="101.4838"
                 id="tspan13811">PARÂMETROS</tspan></text><text
               xml:space="preserve"
               style="font-style:normal;font-variant:normal;font-weight:normal;font-stretch:normal;font-size:6.35px;line-height:1.25;font-family:Carlito;-inkscape-font-specification:Carlito;text-align:center;text-decoration-color:#000000;text-anchor:middle;fill:#87decd;fill-opacity:1;stroke-width:1.00013;stroke-dasharray:none;stop-color:#000000"
               x="237.83287"
               y="80.517235"
               id="text13819"><tspan
                 sodipodi:role="line"
                 style="font-style:normal;font-variant:normal;font-weight:normal;font-stretch:normal;font-size:6.35px;font-family:Carlito;-inkscape-font-specification:Carlito;text-align:center;text-anchor:middle;fill:#87decd;fill-opacity:1;stroke-width:1.00013;stroke-dasharray:none"
                 x="237.83287"
                 y="80.517235"
                 id="tspan13817">AMBIENTE</tspan></text></g><g
             id="g11986"
             transform="translate(111.08166,41.374733)"
             style="fill:#101120;fill-opacity:1;stroke-width:1.00013;stroke-dasharray:none" /></g><path
           style="fill:none;stroke:#5f8dd3;stroke-width:0.264583px;stroke-linecap:butt;stroke-linejoin:miter;stroke-dasharray:0.529166, 1.05833;stroke-dashoffset:0;stroke-opacity:1"
           d="m 135.3568,70.284521 h 87.72367"
           id="path13821" /><path
           style="fill:none;stroke:#5f8dd3;stroke-width:0.264583px;stroke-linecap:butt;stroke-linejoin:miter;stroke-dasharray:0.529166, 1.05833;stroke-dashoffset:0;stroke-opacity:1"
           d="m 135.3568,91.251089 h 87.72367"
           id="path13823" /><g
           id="g16598"
           transform="translate(0,88.326247)"><g
             id="g16717"
             transform="translate(0,-20.966568)" /></g></g><g
         id="g14795"
         transform="translate(5.2916667,-0.89830297)"><g
           id="g14359"
           transform="translate(-91.342591,34.752006)"><g
             id="g14249"
             transform="translate(12.355865)"><rect
               style="fill:#1f2137;fill-opacity:1;fill-rule:evenodd;stroke:#deaa87;stroke-width:0.529168;stroke-dasharray:none;stroke-opacity:1"
               id="rect14192"
               width="24.624889"
               height="13.437634"
               x="262.41"
               y="64.681625" /><text
               xml:space="preserve"
               style="font-style:normal;font-variant:normal;font-weight:normal;font-stretch:normal;font-size:6.35px;line-height:1.25;font-family:'JetBrainsMonoNL Nerd Font Mono';-inkscape-font-specification:'JetBrainsMonoNL Nerd Font Mono';text-align:center;text-decoration-color:#000000;text-anchor:middle;fill:#deaa87;fill-opacity:1;stroke-width:1.00013;stroke-dasharray:none;stop-color:#000000"
               x="274.56674"
               y="73.344856"
               id="text14204"><tspan
                 sodipodi:role="line"
                 style="font-style:normal;font-variant:normal;font-weight:normal;font-stretch:normal;font-size:6.35px;font-family:'JetBrainsMonoNL Nerd Font Mono';-inkscape-font-specification:'JetBrainsMonoNL Nerd Font Mono';text-align:center;text-anchor:middle;fill:#deaa87;fill-opacity:1;stroke-width:1.00013;stroke-dasharray:none"
                 x="274.56674"
                 y="73.344856"
                 id="tspan14202">ARGC</tspan></text></g><g
             id="g14265"
             transform="translate(36.980743)"><rect
               style="fill:#1f2137;fill-opacity:1;fill-rule:evenodd;stroke:#deaa87;stroke-width:0.529167;stroke-dasharray:none;stroke-opacity:1"
               id="rect14259"
               width="29.916559"
               height="13.437634"
               x="262.41"
               y="64.681625" /><text
               xml:space="preserve"
               style="font-style:normal;font-variant:normal;font-weight:normal;font-stretch:normal;font-size:6.35px;line-height:1.25;font-family:'JetBrainsMonoNL Nerd Font Mono';-inkscape-font-specification:'JetBrainsMonoNL Nerd Font Mono';text-align:center;text-decoration-color:#000000;text-anchor:middle;fill:#deaa87;fill-opacity:1;stroke-width:1.00013;stroke-dasharray:none;stop-color:#000000"
               x="277.86041"
               y="73.344856"
               id="text14263"><tspan
                 sodipodi:role="line"
                 style="font-style:normal;font-variant:normal;font-weight:normal;font-stretch:normal;font-size:6.35px;font-family:'JetBrainsMonoNL Nerd Font Mono';-inkscape-font-specification:'JetBrainsMonoNL Nerd Font Mono';text-align:center;text-anchor:middle;fill:#deaa87;fill-opacity:1;stroke-width:1.00013;stroke-dasharray:none"
                 x="277.86041"
                 y="73.344856"
                 id="tspan14261">ARG[0]</tspan></text></g><g
             id="g14273"
             transform="translate(60.762766)"><rect
               style="fill:#1f2137;fill-opacity:1;fill-rule:evenodd;stroke:#deaa87;stroke-width:0.529168;stroke-dasharray:none;stroke-opacity:1"
               id="rect14267"
               width="12.355856"
               height="13.437634"
               x="268.54453"
               y="64.681625" /><text
               xml:space="preserve"
               style="font-style:normal;font-variant:normal;font-weight:normal;font-stretch:normal;font-size:6.35px;line-height:1.25;font-family:'JetBrainsMonoNL Nerd Font Mono';-inkscape-font-specification:'JetBrainsMonoNL Nerd Font Mono';text-align:center;text-decoration-color:#000000;text-anchor:middle;fill:#deaa87;fill-opacity:1;stroke-width:1.00013;stroke-dasharray:none;stop-color:#000000"
               x="274.56674"
               y="73.344856"
               id="text14271"><tspan
                 sodipodi:role="line"
                 style="font-style:normal;font-variant:normal;font-weight:normal;font-stretch:normal;font-size:6.35px;font-family:'JetBrainsMonoNL Nerd Font Mono';-inkscape-font-specification:'JetBrainsMonoNL Nerd Font Mono';text-align:center;text-anchor:middle;fill:#deaa87;fill-opacity:1;stroke-width:1.00013;stroke-dasharray:none"
                 x="274.56674"
                 y="73.344856"
                 id="tspan14269">\0</tspan></text></g><g
             id="g14281"
             transform="translate(79.253153)"><rect
               style="fill:#1f2137;fill-opacity:1;fill-rule:evenodd;stroke:#deaa87;stroke-width:0.529167;stroke-dasharray:none;stroke-opacity:1"
               id="rect14275"
               width="29.916559"
               height="13.437634"
               x="262.41"
               y="64.681625" /><text
               xml:space="preserve"
               style="font-style:normal;font-variant:normal;font-weight:normal;font-stretch:normal;font-size:6.35px;line-height:1.25;font-family:'JetBrainsMonoNL Nerd Font Mono';-inkscape-font-specification:'JetBrainsMonoNL Nerd Font Mono';text-align:center;text-decoration-color:#000000;text-anchor:middle;fill:#deaa87;fill-opacity:1;stroke-width:1.00013;stroke-dasharray:none;stop-color:#000000"
               x="277.86041"
               y="73.344856"
               id="text14279"><tspan
                 sodipodi:role="line"
                 style="font-style:normal;font-variant:normal;font-weight:normal;font-stretch:normal;font-size:6.35px;font-family:'JetBrainsMonoNL Nerd Font Mono';-inkscape-font-specification:'JetBrainsMonoNL Nerd Font Mono';text-align:center;text-anchor:middle;fill:#deaa87;fill-opacity:1;stroke-width:1.00013;stroke-dasharray:none"
                 x="277.86041"
                 y="73.344856"
                 id="tspan14277">ARG[1]</tspan></text></g><g
             id="g14289"
             transform="translate(103.03518)"><rect
               style="fill:#1f2137;fill-opacity:1;fill-rule:evenodd;stroke:#deaa87;stroke-width:0.529168;stroke-dasharray:none;stroke-opacity:1"
               id="rect14283"
               width="12.355856"
               height="13.437634"
               x="268.54453"
               y="64.681625" /><text
               xml:space="preserve"
               style="font-style:normal;font-variant:normal;font-weight:normal;font-stretch:normal;font-size:6.35px;line-height:1.25;font-family:'JetBrainsMonoNL Nerd Font Mono';-inkscape-font-specification:'JetBrainsMonoNL Nerd Font Mono';text-align:center;text-decoration-color:#000000;text-anchor:middle;fill:#deaa87;fill-opacity:1;stroke-width:1.00013;stroke-dasharray:none;stop-color:#000000"
               x="274.56674"
               y="73.344856"
               id="text14287"><tspan
                 sodipodi:role="line"
                 style="font-style:normal;font-variant:normal;font-weight:normal;font-stretch:normal;font-size:6.35px;font-family:'JetBrainsMonoNL Nerd Font Mono';-inkscape-font-specification:'JetBrainsMonoNL Nerd Font Mono';text-align:center;text-anchor:middle;fill:#deaa87;fill-opacity:1;stroke-width:1.00013;stroke-dasharray:none"
                 x="274.56674"
                 y="73.344856"
                 id="tspan14285">\0</tspan></text></g><g
             id="g14297"
             transform="translate(121.52557)"><rect
               style="fill:#1f2137;fill-opacity:1;fill-rule:evenodd;stroke:#deaa87;stroke-width:0.529167;stroke-dasharray:none;stroke-opacity:1"
               id="rect14291"
               width="29.916559"
               height="13.437634"
               x="262.41"
               y="64.681625" /><text
               xml:space="preserve"
               style="font-style:normal;font-variant:normal;font-weight:normal;font-stretch:normal;font-size:6.35px;line-height:1.25;font-family:'JetBrainsMonoNL Nerd Font Mono';-inkscape-font-specification:'JetBrainsMonoNL Nerd Font Mono';text-align:center;text-decoration-color:#000000;text-anchor:middle;fill:#deaa87;fill-opacity:1;stroke-width:1.00013;stroke-dasharray:none;stop-color:#000000"
               x="277.86041"
               y="73.344856"
               id="text14295"><tspan
                 sodipodi:role="line"
                 style="font-style:normal;font-variant:normal;font-weight:normal;font-stretch:normal;font-size:6.35px;font-family:'JetBrainsMonoNL Nerd Font Mono';-inkscape-font-specification:'JetBrainsMonoNL Nerd Font Mono';text-align:center;text-anchor:middle;fill:#deaa87;fill-opacity:1;stroke-width:1.00013;stroke-dasharray:none"
                 x="277.86041"
                 y="73.344856"
                 id="tspan14293">ARG[2]</tspan></text></g><g
             id="g14305"
             transform="translate(145.30759)"><rect
               style="fill:#1f2137;fill-opacity:1;fill-rule:evenodd;stroke:#deaa87;stroke-width:0.529168;stroke-dasharray:none;stroke-opacity:1"
               id="rect14299"
               width="12.355856"
               height="13.437634"
               x="268.54453"
               y="64.681625" /><text
               xml:space="preserve"
               style="font-style:normal;font-variant:normal;font-weight:normal;font-stretch:normal;font-size:6.35px;line-height:1.25;font-family:'JetBrainsMonoNL Nerd Font Mono';-inkscape-font-specification:'JetBrainsMonoNL Nerd Font Mono';text-align:center;text-decoration-color:#000000;text-anchor:middle;fill:#deaa87;fill-opacity:1;stroke-width:1.00013;stroke-dasharray:none;stop-color:#000000"
               x="274.56674"
               y="73.344856"
               id="text14303"><tspan
                 sodipodi:role="line"
                 style="font-style:normal;font-variant:normal;font-weight:normal;font-stretch:normal;font-size:6.35px;font-family:'JetBrainsMonoNL Nerd Font Mono';-inkscape-font-specification:'JetBrainsMonoNL Nerd Font Mono';text-align:center;text-anchor:middle;fill:#deaa87;fill-opacity:1;stroke-width:1.00013;stroke-dasharray:none"
                 x="274.56674"
                 y="73.344856"
                 id="tspan14301">\0</tspan></text></g><g
             id="g14313"
             transform="translate(163.79797)"><rect
               style="fill:#1f2137;fill-opacity:1;fill-rule:evenodd;stroke:#deaa87;stroke-width:0.529167;stroke-dasharray:none;stroke-opacity:1"
               id="rect14307"
               width="29.916559"
               height="13.437634"
               x="262.41"
               y="64.681625" /><text
               xml:space="preserve"
               style="font-style:normal;font-variant:normal;font-weight:normal;font-stretch:normal;font-size:6.35px;line-height:1.25;font-family:'JetBrainsMonoNL Nerd Font Mono';-inkscape-font-specification:'JetBrainsMonoNL Nerd Font Mono';text-align:center;text-decoration-color:#000000;text-anchor:middle;fill:#deaa87;fill-opacity:1;stroke-width:1.00013;stroke-dasharray:none;stop-color:#000000"
               x="277.86041"
               y="73.344856"
               id="text14311"><tspan
                 sodipodi:role="line"
                 style="font-style:normal;font-variant:normal;font-weight:normal;font-stretch:normal;font-size:6.35px;font-family:'JetBrainsMonoNL Nerd Font Mono';-inkscape-font-specification:'JetBrainsMonoNL Nerd Font Mono';text-align:center;text-anchor:middle;fill:#deaa87;fill-opacity:1;stroke-width:1.00013;stroke-dasharray:none"
                 x="277.86041"
                 y="73.344856"
                 id="tspan14309">ARG[3]</tspan></text></g><g
             id="g14321"
             transform="translate(187.57999)"><rect
               style="fill:#1f2137;fill-opacity:1;fill-rule:evenodd;stroke:#deaa87;stroke-width:0.529168;stroke-dasharray:none;stroke-opacity:1"
               id="rect14315"
               width="12.355856"
               height="13.437634"
               x="268.54453"
               y="64.681625" /><text
               xml:space="preserve"
               style="font-style:normal;font-variant:normal;font-weight:normal;font-stretch:normal;font-size:6.35px;line-height:1.25;font-family:'JetBrainsMonoNL Nerd Font Mono';-inkscape-font-specification:'JetBrainsMonoNL Nerd Font Mono';text-align:center;text-decoration-color:#000000;text-anchor:middle;fill:#deaa87;fill-opacity:1;stroke-width:1.00013;stroke-dasharray:none;stop-color:#000000"
               x="274.56674"
               y="73.344856"
               id="text14319"><tspan
                 sodipodi:role="line"
                 style="font-style:normal;font-variant:normal;font-weight:normal;font-stretch:normal;font-size:6.35px;font-family:'JetBrainsMonoNL Nerd Font Mono';-inkscape-font-specification:'JetBrainsMonoNL Nerd Font Mono';text-align:center;text-anchor:middle;fill:#deaa87;fill-opacity:1;stroke-width:1.00013;stroke-dasharray:none"
                 x="274.56674"
                 y="73.344856"
                 id="tspan14317">\0</tspan></text><text
               xml:space="preserve"
               style="font-style:normal;font-variant:normal;font-weight:normal;font-stretch:normal;font-size:6.35px;line-height:1.25;font-family:'JetBrainsMonoNL Nerd Font Mono';-inkscape-font-specification:'JetBrainsMonoNL Nerd Font Mono';text-align:center;text-decoration-color:#000000;text-anchor:middle;fill:#deaa87;fill-opacity:1;stroke-width:1.00013;stroke-dasharray:none;stop-color:#000000"
               x="288.85419"
               y="73.344856"
               id="text14363"><tspan
                 sodipodi:role="line"
                 style="font-style:normal;font-variant:normal;font-weight:normal;font-stretch:normal;font-size:6.35px;font-family:'JetBrainsMonoNL Nerd Font Mono';-inkscape-font-specification:'JetBrainsMonoNL Nerd Font Mono';text-align:center;text-anchor:middle;fill:#deaa87;fill-opacity:1;stroke-width:1.00013;stroke-dasharray:none"
                 x="288.85419"
                 y="73.344856"
                 id="tspan14361">...</tspan></text></g></g></g><rect
         style="fill:#1f2137;fill-opacity:1;fill-rule:evenodd;stroke:#87decd;stroke-width:0.529167;stroke-dasharray:none;stroke-opacity:1"
         id="rect14805"
         width="29.916559"
         height="13.437634"
         x="188.71495"
         y="78.10981" /><text
         xml:space="preserve"
         style="font-style:normal;font-variant:normal;font-weight:normal;font-stretch:normal;font-size:5.64444px;line-height:1.25;font-family:'JetBrainsMonoNL Nerd Font Mono';-inkscape-font-specification:'JetBrainsMonoNL Nerd Font Mono';text-align:center;text-decoration-color:#000000;text-anchor:middle;fill:#87decd;fill-opacity:1;stroke-width:1.00013;stroke-dasharray:none;stop-color:#000000"
         x="203.67323"
         y="86.773041"
         id="text14809"><tspan
           sodipodi:role="line"
           style="font-style:normal;font-variant:normal;font-weight:normal;font-stretch:normal;font-size:5.64444px;font-family:'JetBrainsMonoNL Nerd Font Mono';-inkscape-font-specification:'JetBrainsMonoNL Nerd Font Mono';text-align:center;text-anchor:middle;fill:#87decd;fill-opacity:1;stroke-width:1.00013;stroke-dasharray:none"
           x="203.67323"
           y="86.773041"
           id="tspan14807">VAR1=...</tspan></text><rect
         style="fill:#1f2137;fill-opacity:1;fill-rule:evenodd;stroke:#87decd;stroke-width:0.529167;stroke-dasharray:none;stroke-opacity:1"
         id="rect14821"
         width="29.916559"
         height="13.437634"
         x="230.98737"
         y="78.10981" /><text
         xml:space="preserve"
         style="font-style:normal;font-variant:normal;font-weight:normal;font-stretch:normal;font-size:5.64444px;line-height:1.25;font-family:'JetBrainsMonoNL Nerd Font Mono';-inkscape-font-specification:'JetBrainsMonoNL Nerd Font Mono';text-align:center;text-decoration-color:#000000;text-anchor:middle;fill:#87decd;fill-opacity:1;stroke-width:1.00013;stroke-dasharray:none;stop-color:#000000"
         x="246.00648"
         y="86.773041"
         id="text15090"><tspan
           sodipodi:role="line"
           style="font-style:normal;font-variant:normal;font-weight:normal;font-stretch:normal;font-size:5.64444px;font-family:'JetBrainsMonoNL Nerd Font Mono';-inkscape-font-specification:'JetBrainsMonoNL Nerd Font Mono';text-align:center;text-anchor:middle;fill:#87decd;fill-opacity:1;stroke-width:1.00013;stroke-dasharray:none"
           x="246.00648"
           y="86.773041"
           id="tspan15088">VAR2=...</tspan></text><rect
         style="fill:#1f2137;fill-opacity:1;fill-rule:evenodd;stroke:#87decd;stroke-width:0.529168;stroke-dasharray:none;stroke-opacity:1"
         id="rect14813"
         width="12.355856"
         height="13.437634"
         x="218.6315"
         y="78.10981" /><text
         xml:space="preserve"
         style="font-style:normal;font-variant:normal;font-weight:normal;font-stretch:normal;font-size:6.35px;line-height:1.25;font-family:'JetBrainsMonoNL Nerd Font Mono';-inkscape-font-specification:'JetBrainsMonoNL Nerd Font Mono';text-align:center;text-decoration-color:#000000;text-anchor:middle;fill:#87decd;fill-opacity:1;stroke-width:1.00013;stroke-dasharray:none;stop-color:#000000"
         x="224.65372"
         y="86.773041"
         id="text14817"><tspan
           sodipodi:role="line"
           style="font-style:normal;font-variant:normal;font-weight:normal;font-stretch:normal;font-size:6.35px;font-family:'JetBrainsMonoNL Nerd Font Mono';-inkscape-font-specification:'JetBrainsMonoNL Nerd Font Mono';text-align:center;text-anchor:middle;fill:#87decd;fill-opacity:1;stroke-width:1.00013;stroke-dasharray:none"
           x="224.65372"
           y="86.773041"
           id="tspan14815">\0</tspan></text><rect
         style="fill:#1f2137;fill-opacity:1;fill-rule:evenodd;stroke:#87decd;stroke-width:0.529168;stroke-dasharray:none;stroke-opacity:1"
         id="rect14829"
         width="12.355856"
         height="13.437634"
         x="260.9039"
         y="78.10981" /><text
         xml:space="preserve"
         style="font-style:normal;font-variant:normal;font-weight:normal;font-stretch:normal;font-size:6.35px;line-height:1.25;font-family:'JetBrainsMonoNL Nerd Font Mono';-inkscape-font-specification:'JetBrainsMonoNL Nerd Font Mono';text-align:center;text-decoration-color:#000000;text-anchor:middle;fill:#87decd;fill-opacity:1;stroke-width:1.00013;stroke-dasharray:none;stop-color:#000000"
         x="266.92612"
         y="86.773041"
         id="text14833"><tspan
           sodipodi:role="line"
           style="font-style:normal;font-variant:normal;font-weight:normal;font-stretch:normal;font-size:6.35px;font-family:'JetBrainsMonoNL Nerd Font Mono';-inkscape-font-specification:'JetBrainsMonoNL Nerd Font Mono';text-align:center;text-anchor:middle;fill:#87decd;fill-opacity:1;stroke-width:1.00013;stroke-dasharray:none"
           x="266.92612"
           y="86.773041"
           id="tspan14831">\0</tspan></text><rect
         style="fill:#1f2137;fill-opacity:1;fill-rule:evenodd;stroke:#87decd;stroke-width:0.529167;stroke-dasharray:none;stroke-opacity:1"
         id="rect14837"
         width="29.916559"
         height="13.437634"
         x="273.25977"
         y="78.10981" /><rect
         style="fill:#1f2137;fill-opacity:1;fill-rule:evenodd;stroke:#87decd;stroke-width:0.529168;stroke-dasharray:none;stroke-opacity:1"
         id="rect14845"
         width="12.355856"
         height="13.437634"
         x="303.1763"
         y="78.10981" /><text
         xml:space="preserve"
         style="font-style:normal;font-variant:normal;font-weight:normal;font-stretch:normal;font-size:6.35px;line-height:1.25;font-family:'JetBrainsMonoNL Nerd Font Mono';-inkscape-font-specification:'JetBrainsMonoNL Nerd Font Mono';text-align:center;text-decoration-color:#000000;text-anchor:middle;fill:#87decd;fill-opacity:1;stroke-width:1.00013;stroke-dasharray:none;stop-color:#000000"
         x="309.19852"
         y="86.773041"
         id="text14849"><tspan
           sodipodi:role="line"
           style="font-style:normal;font-variant:normal;font-weight:normal;font-stretch:normal;font-size:6.35px;font-family:'JetBrainsMonoNL Nerd Font Mono';-inkscape-font-specification:'JetBrainsMonoNL Nerd Font Mono';text-align:center;text-anchor:middle;fill:#87decd;fill-opacity:1;stroke-width:1.00013;stroke-dasharray:none"
           x="309.19852"
           y="86.773041"
           id="tspan14847">\0</tspan></text><rect
         style="fill:#1f2137;fill-opacity:1;fill-rule:evenodd;stroke:#87decd;stroke-width:0.529167;stroke-dasharray:none;stroke-opacity:1"
         id="rect14853"
         width="29.916559"
         height="13.437634"
         x="315.53217"
         y="78.10981" /><rect
         style="fill:#1f2137;fill-opacity:1;fill-rule:evenodd;stroke:#87decd;stroke-width:0.529168;stroke-dasharray:none;stroke-opacity:1"
         id="rect14861"
         width="12.355856"
         height="13.437634"
         x="345.4487"
         y="78.10981" /><text
         xml:space="preserve"
         style="font-style:normal;font-variant:normal;font-weight:normal;font-stretch:normal;font-size:6.35px;line-height:1.25;font-family:'JetBrainsMonoNL Nerd Font Mono';-inkscape-font-specification:'JetBrainsMonoNL Nerd Font Mono';text-align:center;text-decoration-color:#000000;text-anchor:middle;fill:#87decd;fill-opacity:1;stroke-width:1.00013;stroke-dasharray:none;stop-color:#000000"
         x="351.47092"
         y="86.773041"
         id="text14865"><tspan
           sodipodi:role="line"
           style="font-style:normal;font-variant:normal;font-weight:normal;font-stretch:normal;font-size:6.35px;font-family:'JetBrainsMonoNL Nerd Font Mono';-inkscape-font-specification:'JetBrainsMonoNL Nerd Font Mono';text-align:center;text-anchor:middle;fill:#87decd;fill-opacity:1;stroke-width:1.00013;stroke-dasharray:none"
           x="351.47092"
           y="86.773041"
           id="tspan14863">\0</tspan></text><text
         xml:space="preserve"
         style="font-style:normal;font-variant:normal;font-weight:normal;font-stretch:normal;font-size:6.35px;line-height:1.25;font-family:'JetBrainsMonoNL Nerd Font Mono';-inkscape-font-specification:'JetBrainsMonoNL Nerd Font Mono';text-align:center;text-decoration-color:#000000;text-anchor:middle;fill:#87decd;fill-opacity:1;stroke-width:1.00013;stroke-dasharray:none;stop-color:#000000"
         x="365.75836"
         y="86.773041"
         id="text14869"><tspan
           sodipodi:role="line"
           style="font-style:normal;font-variant:normal;font-weight:normal;font-stretch:normal;font-size:6.35px;font-family:'JetBrainsMonoNL Nerd Font Mono';-inkscape-font-specification:'JetBrainsMonoNL Nerd Font Mono';text-align:center;text-anchor:middle;fill:#87decd;fill-opacity:1;stroke-width:1.00013;stroke-dasharray:none"
           x="365.75836"
           y="86.773041"
           id="tspan14867">...</tspan></text><text
         xml:space="preserve"
         style="font-style:normal;font-variant:normal;font-weight:normal;font-stretch:normal;font-size:5.64444px;line-height:1.25;font-family:'JetBrainsMonoNL Nerd Font Mono';-inkscape-font-specification:'JetBrainsMonoNL Nerd Font Mono';text-align:center;text-decoration-color:#000000;text-anchor:middle;fill:#87decd;fill-opacity:1;stroke-width:1.00013;stroke-dasharray:none;stop-color:#000000"
         x="288.21805"
         y="86.773041"
         id="text15179"><tspan
           sodipodi:role="line"
           style="font-style:normal;font-variant:normal;font-weight:normal;font-stretch:normal;font-size:5.64444px;font-family:'JetBrainsMonoNL Nerd Font Mono';-inkscape-font-specification:'JetBrainsMonoNL Nerd Font Mono';text-align:center;text-anchor:middle;fill:#87decd;fill-opacity:1;stroke-width:1.00013;stroke-dasharray:none"
           x="288.21805"
           y="86.773041"
           id="tspan15177">VAR3=...</tspan></text><text
         xml:space="preserve"
         style="font-style:normal;font-variant:normal;font-weight:normal;font-stretch:normal;font-size:5.64444px;line-height:1.25;font-family:'JetBrainsMonoNL Nerd Font Mono';-inkscape-font-specification:'JetBrainsMonoNL Nerd Font Mono';text-align:center;text-decoration-color:#000000;text-anchor:middle;fill:#87decd;fill-opacity:1;stroke-width:1.00013;stroke-dasharray:none;stop-color:#000000"
         x="330.49045"
         y="86.773041"
         id="text15183"><tspan
           sodipodi:role="line"
           style="font-style:normal;font-variant:normal;font-weight:normal;font-stretch:normal;font-size:5.64444px;font-family:'JetBrainsMonoNL Nerd Font Mono';-inkscape-font-specification:'JetBrainsMonoNL Nerd Font Mono';text-align:center;text-anchor:middle;fill:#87decd;fill-opacity:1;stroke-width:1.00013;stroke-dasharray:none"
           x="330.49045"
           y="86.773041"
           id="tspan15181">PATH=...</tspan></text><path
         style="fill:none;stroke:#ffffff;stroke-width:1.32292;stroke-linecap:butt;stroke-linejoin:miter;stroke-dasharray:none;stroke-opacity:1;marker-start:url(#TriangleStart)"
         d="M 330.49046,72.221318 V 66.953524"
         id="path16297" /><path
         style="fill:none;stroke:#87decd;stroke-width:1.32292;stroke-linecap:butt;stroke-linejoin:miter;stroke-dasharray:none;stroke-opacity:1;marker-start:url(#TriangleStart)"
         d="m 179.68368,84.828628 h -8.84606"
         id="path16409" /><path
         style="fill:none;stroke:#deaa87;stroke-width:1.32292;stroke-linecap:butt;stroke-linejoin:miter;stroke-dasharray:none;stroke-opacity:1;marker-start:url(#TriangleStart)"
         d="m 179.68368,105.25415 h -8.84606"
         id="path16417" /><text
         xml:space="preserve"
         style="font-style:normal;font-variant:normal;font-weight:normal;font-stretch:normal;font-size:5.64444px;line-height:1.25;font-family:'JetBrainsMonoNL Nerd Font Mono';-inkscape-font-specification:'JetBrainsMonoNL Nerd Font Mono';text-align:center;text-decoration-color:#000000;text-anchor:middle;fill:#ffffff;fill-opacity:1;stroke-width:1.00013;stroke-dasharray:none;stop-color:#000000"
         x="330.49045"
         y="62.960552"
         id="text16582"><tspan
           sodipodi:role="line"
           style="font-style:normal;font-variant:normal;font-weight:normal;font-stretch:normal;font-size:5.64444px;font-family:'JetBrainsMonoNL Nerd Font Mono';-inkscape-font-specification:'JetBrainsMonoNL Nerd Font Mono';text-align:center;text-anchor:middle;fill:#ffffff;fill-opacity:1;stroke-width:1.00013;stroke-dasharray:none"
           x="330.49045"
           y="62.960552"
           id="tspan16580">PATH=/usr/local/bin:/usr/bin:/bin:/usr/local/games:/usr/games</tspan></text><g
         id="g17376"
         transform="translate(0,-10.583333)"><path
           style="fill:none;stroke:#5f8dd3;stroke-width:0.264583px;stroke-linecap:butt;stroke-linejoin:miter;stroke-dasharray:0.529166, 1.05833;stroke-dashoffset:0;stroke-opacity:1"
           d="M 77.148463,199.87041 H 164.87213"
           id="path16588" /><text
           xml:space="preserve"
           style="font-style:normal;font-variant:normal;font-weight:normal;font-stretch:normal;font-size:6.35px;line-height:1.25;font-family:Carlito;-inkscape-font-specification:Carlito;text-align:center;text-decoration-color:#000000;text-anchor:middle;fill:#80b3ff;fill-opacity:1;stroke-width:1.00013;stroke-dasharray:none;stop-color:#000000"
           x="120.85458"
           y="169.47568"
           id="text16707"><tspan
             sodipodi:role="line"
             style="font-style:normal;font-variant:normal;font-weight:normal;font-stretch:normal;font-size:6.35px;font-family:Carlito;-inkscape-font-specification:Carlito;text-align:center;text-anchor:middle;fill:#80b3ff;fill-opacity:1;stroke-width:1.00013;stroke-dasharray:none"
             x="120.85458"
             y="169.47568"
             id="tspan16705">PARÂMETROS</tspan><tspan
             sodipodi:role="line"
             style="font-style:normal;font-variant:normal;font-weight:normal;font-stretch:normal;font-size:6.35px;font-family:Carlito;-inkscape-font-specification:Carlito;text-align:center;text-anchor:middle;fill:#80b3ff;fill-opacity:1;stroke-width:1.00013;stroke-dasharray:none"
             x="120.85458"
             y="177.41318"
             id="tspan7227">VARIÁVEIS</tspan><tspan
             sodipodi:role="line"
             style="font-style:normal;font-variant:normal;font-weight:normal;font-stretch:normal;font-size:6.35px;font-family:Carlito;-inkscape-font-specification:Carlito;text-align:center;text-anchor:middle;fill:#80b3ff;fill-opacity:1;stroke-width:1.00013;stroke-dasharray:none"
             x="120.85458"
             y="185.35068"
             id="tspan16719">FUNÇÕES</tspan><tspan
             sodipodi:role="line"
             style="font-style:normal;font-variant:normal;font-weight:normal;font-stretch:normal;font-size:6.35px;font-family:Carlito;-inkscape-font-specification:Carlito;text-align:center;text-anchor:middle;fill:#80b3ff;fill-opacity:1;stroke-width:1.00013;stroke-dasharray:none"
             x="120.85458"
             y="193.28818"
             id="tspan16721">APELIDOS</tspan></text><path
           style="fill:none;stroke:#5f8dd3;stroke-width:0.264583px;stroke-linecap:butt;stroke-linejoin:miter;stroke-dasharray:0.529166, 1.05833;stroke-dashoffset:0;stroke-opacity:1"
           d="M 77.148463,157.73718 H 164.87213"
           id="path16709" /><text
           xml:space="preserve"
           style="font-style:normal;font-variant:normal;font-weight:normal;font-stretch:normal;font-size:6.35px;line-height:1.25;font-family:Carlito;-inkscape-font-specification:Carlito;text-align:center;text-decoration-color:#000000;text-anchor:middle;fill:#80b3ff;fill-opacity:1;stroke-width:1.00013;stroke-dasharray:none;stop-color:#000000"
           x="298.67877"
           y="87.730682"
           id="text17352"
           transform="translate(-58.208337,92.744322)"><tspan
             sodipodi:role="line"
             style="font-style:normal;font-variant:normal;font-weight:normal;font-stretch:normal;font-size:6.35px;font-family:Carlito;-inkscape-font-specification:Carlito;text-align:center;text-anchor:middle;fill:#80b3ff;fill-opacity:1;stroke-width:1.00013;stroke-dasharray:none"
             x="298.67877"
             y="87.730682"
             id="tspan17350">Dados do ambiente de execução do shell</tspan></text><path
           style="fill:none;stroke:#80b3ff;stroke-width:1.32292;stroke-linecap:butt;stroke-linejoin:miter;stroke-dasharray:none;stroke-opacity:1;marker-start:url(#TriangleStart)"
           d="m 179.68368,178.80379 h -8.84606"
           id="path16999" /></g></g></g></svg>
