<?xml version="1.0" encoding="UTF-8" standalone="no"?>
<!-- Created with Inkscape (http://www.inkscape.org/) -->

<svg
   width="1920"
   height="1056"
   viewBox="0 0 508 279.4"
   version="1.1"
   id="svg5"
   xml:space="preserve"
   inkscape:version="1.2.2 (b0a8486541, 2022-12-01)"
   sodipodi:docname="script04.svg"
   inkscape:export-filename="script04.png"
   inkscape:export-xdpi="96"
   inkscape:export-ydpi="96"
   xmlns:inkscape="http://www.inkscape.org/namespaces/inkscape"
   xmlns:sodipodi="http://sodipodi.sourceforge.net/DTD/sodipodi-0.dtd"
   xmlns="http://www.w3.org/2000/svg"
   xmlns:svg="http://www.w3.org/2000/svg"><sodipodi:namedview
     id="namedview7"
     pagecolor="#505050"
     bordercolor="#eeeeee"
     borderopacity="1"
     inkscape:showpageshadow="0"
     inkscape:pageopacity="0"
     inkscape:pagecheckerboard="0"
     inkscape:deskcolor="#505050"
     inkscape:document-units="px"
     showgrid="false"
     inkscape:zoom="0.5946522"
     inkscape:cx="932.47785"
     inkscape:cy="605.3959"
     inkscape:window-width="1920"
     inkscape:window-height="1034"
     inkscape:window-x="1728"
     inkscape:window-y="0"
     inkscape:window-maximized="1"
     inkscape:current-layer="layer1" /><defs
     id="defs2"><clipPath
       clipPathUnits="userSpaceOnUse"
       id="clipPath1062"><rect
         style="fill:#0000ff;fill-rule:evenodd;stroke-width:0.264583"
         id="rect1064"
         width="121.06966"
         height="197.81165"
         x="335.82321"
         y="-67.598267" /></clipPath><clipPath
       clipPathUnits="userSpaceOnUse"
       id="clipPath2764"><rect
         style="fill:#0000ff;fill-rule:evenodd;stroke-width:0.264583"
         id="rect2766"
         width="125.48514"
         height="95.044609"
         x="163.095"
         y="97.287262" /></clipPath><clipPath
       clipPathUnits="userSpaceOnUse"
       id="clipPath6420"><rect
         style="fill:#0000ff;fill-rule:evenodd;stroke-width:0.264583"
         id="rect6422"
         width="53.298512"
         height="66.225441"
         x="56.0555"
         y="177.15862" /></clipPath></defs><g
     inkscape:label="Camada 1"
     inkscape:groupmode="layer"
     id="layer1"><g
       id="g6566"
       transform="translate(-29.330193,-112.51595)" /><rect
       style="fill:#1f2137;fill-opacity:1;fill-rule:evenodd;stroke:none;stroke-width:0.264583;stroke-opacity:1"
       id="rect788"
       width="508"
       height="279.39999"
       x="-3.0079641e-14"
       y="3.0517579e-06" /><g
       id="g11879"
       transform="translate(111.08166,-127.80238)"
       style="fill:#101120;fill-opacity:1;stroke-width:1.00013;stroke-dasharray:none" /><text
       xml:space="preserve"
       style="font-style:normal;font-variant:normal;font-weight:normal;font-stretch:normal;font-size:11.3505px;line-height:1.25;font-family:'JetBrainsMonoNL Nerd Font Mono';-inkscape-font-specification:'JetBrainsMonoNL Nerd Font Mono';text-align:center;text-decoration-color:#000000;text-anchor:middle;fill:#ffffff;fill-opacity:1;stroke-width:1.00013;stroke-dasharray:none;stop-color:#000000"
       x="253.96849"
       y="143.49692"
       id="text16582"><tspan
         sodipodi:role="line"
         style="font-style:normal;font-variant:normal;font-weight:normal;font-stretch:normal;font-size:11.3505px;font-family:'JetBrainsMonoNL Nerd Font Mono';-inkscape-font-specification:'JetBrainsMonoNL Nerd Font Mono';text-align:center;text-anchor:middle;fill:#ffffff;fill-opacity:1;stroke-width:1.00013;stroke-dasharray:none"
         x="253.96849"
         y="143.49692"
         id="tspan16580">[EXPORTAÇÕES] [INVOCAÇÃO [ARGUMENTOS]] [REDIRECIONAMENTOS]</tspan></text></g></svg>
